<svg width="33" height="27" viewBox="0 0 33 27" fill="none" xmlns="http://www.w3.org/2000/svg">
<path d="M32.3594 2.46094C32.7812 0.492188 31.6562 -0.28125 30.3906 0.210938L2.40625 10.9688C0.507812 11.7422 0.578125 12.7969 2.125 13.2891L9.22656 15.4688L25.8203 5.0625C26.5938 4.5 27.3672 4.85156 26.7344 5.34375L13.3047 17.4375L12.8125 24.8203C13.5859 24.8203 13.8672 24.5391 14.2891 24.1172L17.7344 20.7422L24.9766 26.0859C26.3125 26.8594 27.2969 26.4375 27.6484 24.8906L32.3594 2.46094Z" fill="#101010"/>
</svg>
