<svg width="18" height="23" viewBox="0 0 18 23" fill="none" xmlns="http://www.w3.org/2000/svg">
<path d="M0 5.78571H18V19.2857C18 21.0609 16.5609 22.5 14.7857 22.5H3.21429C1.43908 22.5 0 21.0609 0 19.2857V5.78571Z" fill="#101010"/>
<path fill-rule="evenodd" clip-rule="evenodd" d="M13.5 5.78571H4.5V3.21429C4.5 2.50421 5.07563 1.92857 5.78571 1.92857H12.2143C12.9244 1.92857 13.5 2.50421 13.5 3.21429V5.78571ZM2.57143 7.71429V3.21429C2.57143 1.43908 4.01051 0 5.78571 0H12.2143C13.9895 0 15.4286 1.43909 15.4286 3.21429V7.71429H2.57143Z" fill="#101010"/>
</svg>
